cut_off = 5.0 eps moved
one_body_integral#0 = 334.549
one_body_integral#1 = -37.74
one_body_integral#2 = -0.846869
one_body_integral#3 = -0.0622785
one_body_integral#4 = 0.00895939
one_body_integral#5 = -0.00429258
one_body_integral#6 = 0.000176048
one_body_integral#7 = 0.00459954
two_body_integral#0 = 0.100016
two_body_integral#1 = 0.0995584
two_body_integral#2 = 0.111826
two_body_integral#3 = 0.111188
two_body_integral#4 = 0.121298
two_body_integral#5 = 0.120485
two_bodytwo_body_integral#7 = 0.0976427
two_body_integral#8 = 0.125035
two_body_integral#9 = 0.124144
two_body_integral#10 = 0.0928606
two_body_integral#11 = 0.0924945
two_body_integral#12 = 0.088399
two_body_integral#13 = 0.088083
two_body_integral#14 = 0.0780943
two_body_integral#15 = 0.0778763
two_body_integral#16 = 0.117876
two_body_integral#17 = 0.117129
two_body_integral#18 = 0.138717
two_body_integral#19 = 0.137502
two_body_integral#20 = 0.176858
two_body_integral#21 = 0.174355
two_body_integral#22 = 0.158184
two_body_integral#23 = 0.156387
two_body_integral#24 = 0.223797
two_body_integral#25 = 0.218765
two_body_integral#26 = 0.354096
two_body_integral#27 = 0.334883
two_body_integral#28 = 0.166758
two_body_integral#29 = 0.164655
two_body_integral#30 = 0.250397
two_body_integral#31 = 0.243358
two_body_integral#32 = 0.501871
two_body_integral#33 = 0.450327
two_body_integral#34 = 0.0857592
two_body_integral#35 = 0.0854706
two_body_integral#36 = 0.0745422
two_body_integral#37 = 0.0743525
two_body_integral#38 = 0.0790649
two_body_integral#39 = 0.0788387
two_body_integral#40 = 0.0822086
two_body_integral#41 = 0.0819544
two_body_integral#42 = 1.66119
two_body_integral#43 = 0.958571
two_body_integral#44 = 0.0833429
two_body_integral#45 = 0.083078
two_body_integral#46 = 0.0707164
two_body_integral#47 = 0.0705545
two_body_integral#48 = 0.0714345
two_body_integral#49 = 0.0712676
two_body_integral#50 = 0.0686855
two_body_integral#51 = 0.0685371
two_body_integral#52 = 0.0693427
two_body_integral#53 = 0.06919
two_body_integral#54 = 0.0640225
two_body_integral#55 = 0.0639023
Allocation!
Local_Energy/step = -362.214 variance = 1.41393 ar = 0
Local_Energy/step = -362.009 variance = 2.19184 ar = 0
Local_Energy/step = -362.238 variance = 1.3738 ar = 0
Local_Energy/step = -362.138 variance = 1.73892 ar = 0
Local_Energy/step = -362.202 variance = 1.46156 ar = 0
Local_Energy/step = -362.138 variance = 1.73892 ar = 0
Local_Energy/step = -362.202 variance = 1.46156 ar = 0
Local_Energy/step = -362.149 variance = 1.68103 ar = 0
Local_Energy/step = -362.211 variance = 1.43931 ar = 0
Local_Energy/step = -362.167 variance = 1.58095 ar = 0
Local_Energy/step = -362.241 variance = 1.3228 ar = 0
Local_Energy/step = -362.165 variance = 1.64376 ar = 0
Local_Energy/step = -362.206 variance = 1.43112 ar = 0
Local_Energy/step = -362.194 variance = 1.51593 ar = 0
Local_Energy/step = -362.215 variance = 1.39768 ar = 0
Local_Energy/step = -362.181 variance = 1.54447 ar = 0
Local_Energy/step = -362.221 variance = 1.39724 ar = 0
Local_Energy/step = -362.091 variance = 2.4522 ar = 0
Local_Energy/step = -362.332 variance = 0.738207 ar = 0
Local_Energy/step = -362.1 variance = 1.83822 ar = 0
Local_Energy/step = -362.249 variance = 1.3108 ar = 0
Local_Energy/step = -362.188 variance = 1.52722 ar = 0
Local_Energy/step = -362.218 variance = 1.39391 ar = 0
Local_Energy/step = -362.1 variance = 1.83822 ar = 0
Local_Energy/step = -362.249 variance = 1.3108 ar = 0
Local_Energy/step = -362.138 variance = 1.73892 ar = 0
Local_Energy/step = -362.202 variance = 1.46156 ar = 0
Local_Energy/step = -362.188 variance = 1.52722 ar = 0
Local_Energy/step = -362.218 variance = 1.39391 ar = 0
Local_Energy/step = -362.091 variance = 2.4522 ar = 0
Local_Energy/step = -362.332 variance = 0.738207 ar = 0
Local_Energy/step = -362.167 variance = 1.58095 ar = 0
Local_Energy/step = -362.241 variance = 1.3228 ar = 0
Local_Energy/step = -362.167 variance = 1.58095 ar = 0
Local_Energy/step = -362.241 variance = 1.3228 ar = 0
Local_Energy/step = -362.15 variance = 1.66512 ar = 0
Local_Energy/step = -362.246 variance = 1.31775 ar = 0
Local_Energy/step = -362.134 variance = 2.08455 ar = 0
Local_Energy/step = -362.292 variance = 0.939391 ar = 0
Local_Energy/step = -362.164 variance = 1.59005 ar = 0
Local_Energy/step = -362.24 variance = 1.34563 ar = 0
Local_Energy/step = -362.164 variance = 1.59909 ar = 0
Local_Energy/step = -362.235 variance = 1.32704 ar = 0
Local_Energy/step = -362.182 variance = 1.52486 ar = 0
Local_Energy/step = -362.244 variance = 1.21285 ar = 0
Local_Energy/step = -362.131 variance = 2.07737 ar = 0
Local_Energy/step = -362.294 variance = 0.931534 ar = 0
Local_Energy/step = -362.194 variance = 1.49233 ar = 0
Local_Energy/step = -362.224 variance = 1.3904 ar = 0
Local_Energy/step = -362.201 variance = 1.4599 ar = 0
Local_Energy/step = -362.226 variance = 1.37565 ar = 0
Local_Energy/step = -362.213 variance = 1.43411 ar = 0
Local_Energy/step = -362.214 variance = 1.40383 ar = 0
Local_Energy/step = -362.186 variance = 1.49783 ar = 0
Local_Energy/step = -362.233 variance = 1.37025 ar = 0
Local_Energy/step = -362.205 variance = 1.44676 ar = 0
Local_Energy/step = -362.22 variance = 1.3856 ar = 0
Local_Energy/step = -362.34 variance = 0.676275 ar = 0
Local_Energy/step = -362.462 variance = 0.300954 ar = 0
Local_Energy/step = -362.354 variance = 0.619423 ar = 0
Local_Energy/step = -362.256 variance = 1.25322 ar = 0
Local_Energy/step = -362.327 variance = 0.763413 ar = 0
Local_Energy/step = -362.337 variance = 0.708377 ar = 0
Local_Energy/step = -362.283 variance = 1.08951 ar = 0
Local_Energy/step = -362.283 variance = 1.09071 ar = 0
Local_Energy/step = -362.259 variance = 1.13863 ar = 0
Local_Energy/step = -362.257 variance = 1.14418 ar = 0
Local_Energy/step = -362.255 variance = 1.15157 ar = 0
Local_Energy/step = -362.263 variance = 1.13261 ar = 0
Local_Energy/step = -362.3 variance = 1.00889 ar = 0
Local_Energy/step = -362.262 variance = 1.11079 ar = 0
Local_Energy/step = -362.292 variance = 1.01896 ar = 0
Local_Energy/step = -362.308 variance = 0.956715 ar = 0
Local_Energy/step = -362.306 variance = 0.962515 ar = 0
Local_Energy/step = -362.308 variance = 0.955457 ar = 0
Local_Energy/step = -362.309 variance = 0.949051 ar = 0
Local_Energy/step = -362.297 variance = 0.995458 ar = 0
Local_Energy/step = -362.297 variance = 0.971554 ar = 0
Local_Energy/step = -362.298 variance = 0.968562 ar = 0
Local_Energy/step = -362.344 variance = 0.803855 ar = 0
Local_Energy/step = -362.303 variance = 0.93308 ar = 0
Local_Energy/step = -362.328 variance = 0.869582 ar = 0
Local_Energy/step = -362.316 variance = 0.91231 ar = 0
Local_Energy/step = -362.315 variance = 0.868828 ar = 0
Local_Energy/step = -362.316 variance = 0.862469 ar = 0
Local_Energy/step = -362.317 variance = 0.85683 ar = 0
Local_Energy/step = -362.339 variance = 0.801245 ar = 0
Local_Energy/step = -362.338 variance = 0.797595 ar = 0
Local_Energy/step = -362.326 variance = 0.803235 ar = 0
Local_Energy/step = -362.342 variance = 0.75938 ar = 0
Local_Energy/step = -362.344 variance = 0.761019 ar = 0
Local_Energy/step = -362.355 variance = 0.718697 ar = 0
Local_Energy/step = -362.364 variance = 0.698039 ar = 0
Local_Energy/step = -362.363 variance = 0.685117 ar = 0
Local_Energy/step = -362.357 variance = 0.690713 ar = 0
Local_Energy/step = -362.365 variance = 0.668203 ar = 0
Local_Energy/step = -362.367 variance = 0.657893 ar = 0
Local_Energy/step = -362.369 variance = 0.6485 ar = 0
Local_Energy/step = -362.38 variance = 0.62645 ar = 0
Local_Energy/step = -362.386 variance = 0.60041 ar = 0
