I1 = 56.8903
I1 = -0.668146
I2 = 0.13322
I3 = -0.0676739
Allocation!
Local_Energy/step = -68.8739 variancy = 9.33754
Local_Energy/step = -65.4101 variancy = 9.06002
Local_Energy/step = -68.4102 variancy = 6.33523
Local_Energy/step = -67.333 variancy = 8.21721
Local_Energy/step = -67.644 variancy = 13.0396
Local_Energy/step = -66.7082 variancy = 9.12089
Local_Energy/step = -64.8002 variancy = 13.973
Local_Energy/step = -67.4977 variancy = 11.3532
