{[0] [0,0,0] (0) [1s, 0, 0, 1, 0, 5] (1) [1s,0,0,0,0,5]  (2) [2s, 0, 0, 0, 1, 3] (3) [2s,0,0,1,1,3] (4) [2p_xp, 0, 0, 1, 3, 3] (5) [2p_xp,0,0,0,3,3] (6) [2p_yp, 0, 0, 1, 3, 3] (7) [2p_yp,0,0,0,3,3] (8) [2p_zp,0,0,1,2,5] (9) [2p_zm,0,0,0,2,5] }
{[1] [0,0,0] (0) [1s, 0, 0, 1, 0, 5] (1) [1s,0,0,0,0,5]  (2) [2s, 0, 0, 0, 1, 3] (3) [2s,0,0,1,1,3] (4) [2p_xp, 0, 0, 1, 3, 3] (5) [2p_xp,0,0,0,3,3] (6) [2p_yp, 0, 0, 1, 3, 3] (7) [2p_yp,0,0,0,3,3] (8) [2p_zp,0,0,1,2,5] (9) [2p_zm,0,0,0,2,5] }
{[2] [0,0,0] (0) [1s, 0, 0, 1, 0, 5] (1) [1s,0,0,0,0,5]  (2) [2s, 0, 0, 0, 1, 3] (3) [2s,0,0,1,1,3] (4) [2p_xp, 0, 0, 1, 3, 3] (5) [2p_xp,0,0,0,3,3] (6) [2p_yp, 0, 0, 1, 3, 3] (7) [2p_yp,0,0,0,3,3] (8) [2p_zp,0,0,1,2,5] (9) [2p_zm,0,0,0,2,5] }
{[3] [0,0,0] (0) [1s, 0, 0, 1, 0, 5] (1) [1s,0,0,0,0,5]  (2) [2s, 0, 0, 0, 1, 3] (3) [2s,0,0,1,1,3] (4) [2p_xp, 0, 0, 1, 3, 3] (5) [2p_xp,0,0,0,3,3] (6) [2p_yp, 0, 0, 1, 3, 3] (7) [2p_yp,0,0,0,3,3] (8) [2p_zp,0,0,1,2,5] (9) [2p_zm,0,0,0,2,5] }
{[4] [0,0,0] (0) [1s, 0, 0, 1, 0, 5] (1) [1s,0,0,0,0,5]  (2) [2s, 0, 0, 0, 1, 3] (3) [2s,0,0,1,1,3] (4) [2p_xp, 0, 0, 1, 3, 3] (5) [2p_xp,0,0,0,3,3] (6) [2p_yp, 0, 0, 1, 3, 3] (7) [2p_yp,0,0,0,3,3] (8) [2p_zp,0,0,1,2,5] (9) [2p_zm,0,0,0,2,5] }
{[5] [0,0,1] (0) [1s, 0, 0, 1, 0, 5] (1) [1s,0,0,0,0,5]  (2) [2s, 0, 0, 0, 1, 3] (3) [2s,0,0,1,1,3] (4) [2p_xp, 0, 0, 1, 3, 3] (5) [2p_xp,0,0,0,3,3] (6) [2p_yp, 0, 0, 1, 3, 3] (7) [2p_yp,0,0,0,3,3] (8) [2p_zp,0,0,1,2,5] (9) [2p_zm,0,0,0,2,5] }
{[6] [0,0,1] (0) [1s, 0, 0, 1, 0, 5] (1) [1s,0,0,0,0,5]  (2) [2s, 0, 0, 0, 1, 3] (3) [2s,0,0,1,1,3] (4) [2p_xp, 0, 0, 1, 3, 3] (5) [2p_xp,0,0,0,3,3] (6) [2p_yp, 0, 0, 1, 3, 3] (7) [2p_yp,0,0,0,3,3] (8) [2p_zp,0,0,1,2,5] (9) [2p_zm,0,0,0,2,5] }
{[7] [0,0,1] (0) [1s, 0, 0, 1, 0, 5] (1) [1s,0,0,0,0,5]  (2) [2s, 0, 0, 0, 1, 3] (3) [2s,0,0,1,1,3] (4) [2p_xp, 0, 0, 1, 3, 3] (5) [2p_xp,0,0,0,3,3] (6) [2p_yp, 0, 0, 1, 3, 3] (7) [2p_yp,0,0,0,3,3] (8) [2p_zp,0,0,1,2,5] (9) [2p_zm,0,0,0,2,5] }
{[8] [0,0,1] (0) [1s, 0, 0, 1, 0, 5] (1) [1s,0,0,0,0,5]  (2) [2s, 0, 0, 0, 1, 3] (3) [2s,0,0,1,1,3] (4) [2p_xp, 0, 0, 1, 3, 3] (5) [2p_xp,0,0,0,3,3] (6) [2p_yp, 0, 0, 1, 3, 3] (7) [2p_yp,0,0,0,3,3] (8) [2p_zp,0,0,1,2,5] (9) [2p_zm,0,0,0,2,5] }
{[9] [0,0,1] (0) [1s, 0, 0, 1, 0, 5] (1) [1s,0,0,0,0,5]  (2) [2s, 0, 0, 0, 1, 3] (3) [2s,0,0,1,1,3] (4) [2p_xp, 0, 0, 1, 3, 3] (5) [2p_xp,0,0,0,3,3] (6) [2p_yp, 0, 0, 1, 3, 3] (7) [2p_yp,0,0,0,3,3] (8) [2p_zp,0,0,1,2,5] (9) [2p_zm,0,0,0,2,5] }




<0,0,1>
<1,1,1>
<2,2,1>
<3,3,1>
<0,1,0>
<0,2,0>
<0,3,0>
<0,5,0>
<0,6,0>
<0,7,0>

open_betas 
1.0,-0.25,1.0,-0.1,0.1,0.1,1.0,-0.1,0.1,0.1
close_betas


open_atomic_numbers
1,1,1,1,1,1,1,1,1,1
close_atomic_numbers

