-1.2 0 -0.654722
-1.19 0 -0.661756
-1.18 0 -0.659264
-1.17 0 -0.665744
-1.16 0 -0.67555
-1.15 0 -0.676787
-1.14 0 -0.684207
-1.13 0 -0.687729
-1.12 0 -0.692062
-1.11 0 -0.694586
-1.1 0 -0.693387
-1.09 0 -0.699287
-1.08 0 -0.701336
-1.07 0 -0.706495
-1.06 0 -0.71115
-1.05 0 -0.716012
-1.04 0 -0.716817
-1.03 0 -0.724711
-1.02 0 -0.732313
-1.01 0 -0.736594
-1 0 -0.741775
-0.99 0 -0.74742
-0.98 0 -0.745497
-0.97 0 -0.751272
-0.96 0 -0.756496
-0.95 0 -0.760485
-0.94 0 -0.763818
-0.93 0 -0.77513
-0.92 0 -0.77109
-0.91 0 -0.774642
-0.9 0 -0.783434
-0.89 0 -0.783774
-0.88 0 -0.793089
-0.87 0 -0.792453
-0.86 0 -0.804131
-0.85 0 -0.804635
-0.84 0 -0.810132
-0.83 0 -0.814705
-0.82 0 -0.817142
-0.81 0 -0.828308
-0.8 0 -0.8266
-0.79 0 -0.82972
-0.78 0 -0.838556
-0.77 0 -0.841634
-0.76 0 -0.847383
-0.75 0 -0.852185
-0.74 0 -0.856742
-0.73 0 -0.858802
-0.72 0 -0.864115
-0.71 0 -0.86953
-0.7 0 -0.872719
-0.69 0 -0.880103
-0.68 0 -0.883111
-0.67 0 -0.887611
-0.66 0 -0.890096
-0.65 0 -0.89778
-0.64 0 -0.901964
-0.63 0 -0.904347
-0.62 0 -0.909556
-0.61 0 -0.916808
-0.6 0 -0.919414
-0.59 0 -0.921609
-0.58 0 -0.927751
-0.57 0 -0.931684
-0.56 0 -0.937356
-0.55 0 -0.94272
-0.54 0 -0.945462
-0.53 0 -0.950873
-0.52 0 -0.953002
-0.51 0 -0.959334
-0.5 0 -0.967272
-0.49 0 -0.968761
-0.48 0 -0.974802
-0.47 0 -0.976727
-0.46 0 -0.979951
-0.45 0 -0.984967
-0.44 0 -0.9906
-0.43 0 -0.992745
-0.42 0 -0.995376
-0.41 0 -1.00199
-0.4 0 -1.0049
-0.39 0 -1.0089
-0.38 0 -1.01419
-0.37 0 -1.01899
-0.36 0 -1.02231
-0.35 0 -1.02454
-0.34 0 -1.02991
-0.33 0 -1.03391
-0.32 0 -1.03747
-0.31 0 -1.04085
-0.3 0 -1.04635
-0.29 0 -1.04839
-0.28 0 -1.05014
-0.27 0 -1.05465
-0.26 0 -1.05876
-0.25 0 -1.06166
-0.24 0 -1.06555
-0.23 0 -1.07013
-0.22 0 -1.07135
-0.21 0 -1.0736
-0.2 0 -1.07789
-0.19 0 -1.08128
-0.18 0 -1.0856
-0.17 0 -1.08759
-0.16 0 -1.09051
-0.15 0 -1.0934
-0.14 0 -1.09561
-0.13 0 -1.09814
-0.12 0 -1.10091
-0.11 0 -1.10388
-0.1 0 -1.10562
-0.09 0 -1.10863
-0.08 0 -1.11092
-0.07 0 -1.11258
-0.06 0 -1.11505
-0.05 0 -1.11701
-0.04 0 -1.11929
-0.03 0 -1.12138
-0.02 0 -1.12316
-0.01 0 -1.12507
0 0 -1.12687
0.01 0 -1.12848
0.02 0 -1.13025
0.03 0 -1.13187
0.04 0 -1.13326
0.05 0 -1.13486
0.06 0 -1.13617
0.07 0 -1.13738
0.08 0 -1.13837
0.09 0 -1.13971
0.1 0 -1.14043
0.11 0 -1.14168
0.12 0 -1.14255
0.13 0 -1.14326
0.14 0 -1.14409
0.15 0 -1.14474
0.16 0 -1.14507
0.17 0 -1.14585
0.18 0 -1.14635
0.19 0 -1.14656
0.2 0 -1.14685
0.21 0 -1.14714
0.22 0 -1.14731
0.23 0 -1.14737
0.24 0 -1.1474
0.25 0 -1.14734
0.26 0 -1.14727
0.27 0 -1.14704
0.28 0 -1.14675
0.29 0 -1.14649
0.3 0 -1.14588
0.31 0 -1.14591
0.32 0 -1.14505
0.33 0 -1.1444
0.34 0 -1.14363
0.35 0 -1.14271
0.36 0 -1.14216
0.37 0 -1.14152
0.38 0 -1.14058
0.39 0 -1.1398
0.4 0 -1.13846
0.41 0 -1.13675
0.42 0 -1.13587
0.43 0 -1.13441
0.44 0 -1.13328
0.45 0 -1.13222
0.46 0 -1.13108
0.47 0 -1.1301
0.48 0 -1.12699
0.49 0 -1.12652
0.5 0 -1.12486
0.51 0 -1.12302
0.52 0 -1.12084
0.53 0 -1.11966
0.54 0 -1.11863
0.55 0 -1.11675
0.56 0 -1.11517
0.57 0 -1.11318
0.58 0 -1.11216
0.59 0 -1.10737
0.6 0 -1.10549
0.61 0 -1.10525
0.62 0 -1.10185
0.63 0 -1.10078
0.64 0 -1.09734
0.65 0 -1.09496
0.66 0 -1.09341
0.67 0 -1.09004
0.68 0 -1.08942
0.69 0 -1.08781
0.7 0 -1.08427
0.71 0 -1.08144
0.72 0 -1.07904
0.73 0 -1.07735
0.74 0 -1.07544
0.75 0 -1.07125
0.76 0 -1.06942
0.77 0 -1.06472
0.78 0 -1.06454
0.79 0 -1.06275
