0 -1.07896
0.02 -1.12687
0.04 -1.13034
0.06 -1.13326
0.08 -1.13602
0.1 -1.13832
0.12 -1.14058
0.14 -1.14265
0.16 -1.14396
0.18 -1.14543
0.2 -1.14627
0.22 -1.14685
0.24 -1.14728
0.26 -1.14741
0.28 -1.14723
0.3 -1.14676
0.32 -1.14609
0.34 -1.14488
0.36 -1.14356
0.38 -1.1426
0.4 -1.1408
0.42 -1.13849
0.44 -1.13671
0.46 -1.13391
0.48 -1.13059
0.5 -1.12838
0.52 -1.12472
0.54 -1.12252
0.56 -1.11673
0.58 -1.11348
0.6 -1.11151
0.62 -1.10566
0.64 -1.10351
0.66 -1.09725
0.68 -1.0948
0.7 -1.08884
0.72 -1.08477
0.74 -1.0801
0.76 -1.07421
0.78 -1.07154
0.8 -1.06358
0.82 -1.05794
0.84 -1.05408
0.86 -1.04825
0.88 -1.04349
0.9 -1.03724
0.92 -1.03354
0.94 -1.02433
0.96 -1.02239
0.98 -1.01413
1 -1.00936
1.02 -1.00178
1.04 -0.996895
1.06 -0.990975
1.08 -0.986476
1.1 -0.980695
1.12 -0.975335
1.14 -0.966956
1.16 -0.96488
1.18 -0.958661
1.2 -0.951555
1.22 -0.945823
1.24 -0.937257
1.26 -0.934816
1.28 -0.932394
1.3 -0.923335
1.32 -0.916896
1.34 -0.915313
1.36 -0.905411
1.38 -0.905332
1.4 -0.900006
1.42 -0.891481
1.44 -0.885576
1.46 -0.887252
1.48 -0.878366
1.5 -0.871617
1.52 -0.869767
1.54 -0.859938
1.56 -0.853378
1.58 -0.848923
1.6 -0.842606
1.62 -0.838956
1.64 -0.839893
1.66 -0.832769
1.68 -0.827812
1.7 -0.823477
1.72 -0.82009
1.74 -0.814638
1.76 -0.814753
1.78 -0.805281
1.8 -0.801227
1.82 -0.798101
1.84 -0.792027
1.86 -0.79194
1.88 -0.784779
1.9 -0.785823
1.92 -0.773073
1.94 -0.775423
1.96 -0.770959
1.98 -0.765147
