2.4 1  -1.07971 -1.07971
2.4 1.01  -1.08053 -1.08054
2.4 1.02  -1.08115 -1.08112
2.4 1.03  -1.08156 -1.08156
2.4 1.04  -1.08176 -1.08176
2.4 1.05  -1.08176 -1.08175
2.4 1.06  -1.08155 -1.08155
2.4 1.07  -1.08113 -1.08114
2.4 1.08  -1.08051 -1.0805
2.4 1.09  -1.07968 -1.07968
2.4 1.1  -1.07864 -1.07864
2.4 1.11  -1.07739 -1.07741
2.4 1.12  -1.07594 -1.07594
2.4 1.13  -1.07427 -1.07425
2.4 1.14  -1.0724 -1.0724
2.4 1.15  -1.07031 -1.07031
2.4 1.16  -1.06802 -1.06802
2.4 1.17  -1.06551 -1.06549
2.4 1.18  -1.06279 -1.06279
2.4 1.19  -1.05986 -1.05987
2.4 1.2  -1.05672 -1.05667
2.4 1.21  -1.05336 -1.05336
2.4 1.22  -1.04979 -1.04978
2.4 1.23  -1.04601 -1.04599
2.4 1.24  -1.04201 -1.04201
2.4 1.25  -1.03779 -1.03781
2.4 1.26  -1.03336 -1.03334
2.4 1.27  -1.02872 -1.02872
2.4 1.28  -1.02385 -1.02385
2.4 1.29  -1.01877 -1.01881
2.4 1.3  -1.01348 -1.01348
2.4 1.31  -1.00796 -1.00795
2.4 1.32  -1.00223 -1.00225
2.4 1.33  -0.996272 -0.996272
2.4 1.34  -0.990098 -0.990111
2.4 1.35  -0.983705 -0.983752
2.4 1.36  -0.977091 -0.977091
2.4 1.37  -0.970256 -0.970222
2.4 1.38  -0.963201 -0.963204
2.4 1.39  -0.955924 -0.955924
