1.05  -1.11926
1.06  -1.12115
1.07  -1.1233
1.08  -1.125
1.09  -1.12729
1.1  -1.12832
1.11  -1.12946
1.12  -1.13143
1.13  -1.13241
1.14  -1.13278
1.15  -1.13462
1.16  -1.13409
1.17  -1.1341
1.18  -1.13465
1.19  -1.1343
1.2  -1.13449
1.21  -1.13407
1.22  -1.13322
1.23  -1.13247
1.24  -1.13217
1.25  -1.1312
1.26  -1.13001
1.27  -1.12879
1.28  -1.12624
1.29  -1.12479
1.3  -1.12338
1.31  -1.12121
1.32  -1.11921
1.33  -1.11625
1.34  -1.11404
1.35  -1.1105
1.36  -1.10748
1.37  -1.10426
1.38  -1.10149
1.39  -1.0979
1.4  -1.09425
1.41  -1.09057
1.42  -1.08615
1.43  -1.08194
1.44  -1.07645
