one_body
0cup,	0aup,	+,	0,	(0, 0, 0, 0),	(0, 0, 0, 0);
0cdown,	0adown,	+,	0,	(0, 0, 0, 0),	(0, 0, 0, 0);
1cup,	1aup,	+,	1,	(0, 0, 0, 1),	(0, 0, 0, 1);
1cdown,	1adown,	+,	1,	(0, 0, 0, 1),	(0, 0, 0, 1);
2cup,	2aup,	+,	2,	(0, 0, 0, 2),	(0, 0, 0, 2);
2cdown,	2adown,	+,	2,	(0, 0, 0, 2),	(0, 0, 0, 2);
end_one_body

two_body
0cup,	0cup,	0aup,	0aup,	0.5,	0,	(0, 0, 0, 0),   (0, 0, 0, 0),  (0, 0, 0, 0),  (0, 0, 0, 0);
0cdown,	0cdown,	0adown,	0adown,	0.5,	0,	(0, 0, 0, 0),   (0, 0, 0, 0),  (0, 0, 0, 0),  (0, 0, 0, 0);
0cup,	0cdown,	0adown,	0aup,	0.5,	0,	(0, 0, 0, 0),   (0, 0, 0, 0),  (0, 0, 0, 0),  (0, 0, 0, 0);
0cdown,	0cup,	0aup,	0adown,	0.5,	0,	(0, 0, 0, 0),   (0, 0, 0, 0),  (0, 0, 0, 0),  (0, 0, 0, 0);
0cup,	0cup,	1aup,	0aup,	0.5,	1,	(0, 0, 0, 0),   (0, 0, 0, 0),  (0, 0, 0, 0),  (0, 0, 0, 1);
0cdown,	0cdown,	1adown,	0adown,	0.5,	1,	(0, 0, 0, 0),   (0, 0, 0, 0),  (0, 0, 0, 0),  (0, 0, 0, 1);
0cup,	0cdown,	1adown,	0aup,	0.5,	1,	(0, 0, 0, 0),   (0, 0, 0, 0),  (0, 0, 0, 0),  (0, 0, 0, 1);
0cdown,	0cup,	1aup,	0adown,	0.5,	1,	(0, 0, 0, 0),   (0, 0, 0, 0),  (0, 0, 0, 0),  (0, 0, 0, 1);
0cup,	0cup,	2aup,	0aup,	0.5,	2,	(0, 0, 0, 0),   (0, 0, 0, 0),  (0, 0, 0, 0),  (0, 0, 0, 2);
0cdown,	0cdown,	2adown,	0adown,	0.5,	2,	(0, 0, 0, 0),   (0, 0, 0, 0),  (0, 0, 0, 0),  (0, 0, 0, 2);
0cup,	0cdown,	2adown,	0aup,	0.5,	2,	(0, 0, 0, 0),   (0, 0, 0, 0),  (0, 0, 0, 0),  (0, 0, 0, 2);
0cdown,	0cup,	2aup,	0adown,	0.5,	2,	(0, 0, 0, 0),   (0, 0, 0, 0),  (0, 0, 0, 0),  (0, 0, 0, 2);
0cup,	0cup,	0aup,	1aup,	0.5,	3,	(0, 0, 0, 0),   (0, 0, 0, 0),  (0, 0, 0, 1),  (0, 0, 0, 0);
0cdown,	0cdown,	0adown,	1adown,	0.5,	3,	(0, 0, 0, 0),   (0, 0, 0, 0),  (0, 0, 0, 1),  (0, 0, 0, 0);
0cup,	0cdown,	0adown,	1aup,	0.5,	3,	(0, 0, 0, 0),   (0, 0, 0, 0),  (0, 0, 0, 1),  (0, 0, 0, 0);
0cdown,	0cup,	0aup,	1adown,	0.5,	3,	(0, 0, 0, 0),   (0, 0, 0, 0),  (0, 0, 0, 1),  (0, 0, 0, 0);
0cup,	0cup,	1aup,	1aup,	0.5,	4,	(0, 0, 0, 0),   (0, 0, 0, 0),  (0, 0, 0, 1),  (0, 0, 0, 1);
0cdown,	0cdown,	1adown,	1adown,	0.5,	4,	(0, 0, 0, 0),   (0, 0, 0, 0),  (0, 0, 0, 1),  (0, 0, 0, 1);
0cup,	0cdown,	1adown,	1aup,	0.5,	4,	(0, 0, 0, 0),   (0, 0, 0, 0),  (0, 0, 0, 1),  (0, 0, 0, 1);
0cdown,	0cup,	1aup,	1adown,	0.5,	4,	(0, 0, 0, 0),   (0, 0, 0, 0),  (0, 0, 0, 1),  (0, 0, 0, 1);
0cup,	0cup,	2aup,	1aup,	0.5,	5,	(0, 0, 0, 0),   (0, 0, 0, 0),  (0, 0, 0, 1),  (0, 0, 0, 2);
0cdown,	0cdown,	2adown,	1adown,	0.5,	5,	(0, 0, 0, 0),   (0, 0, 0, 0),  (0, 0, 0, 1),  (0, 0, 0, 2);
0cup,	0cdown,	2adown,	1aup,	0.5,	5,	(0, 0, 0, 0),   (0, 0, 0, 0),  (0, 0, 0, 1),  (0, 0, 0, 2);
0cdown,	0cup,	2aup,	1adown,	0.5,	5,	(0, 0, 0, 0),   (0, 0, 0, 0),  (0, 0, 0, 1),  (0, 0, 0, 2);
0cup,	0cup,	0aup,	2aup,	0.5,	6,	(0, 0, 0, 0),   (0, 0, 0, 0),  (0, 0, 0, 2),  (0, 0, 0, 0);
0cdown,	0cdown,	0adown,	2adown,	0.5,	6,	(0, 0, 0, 0),   (0, 0, 0, 0),  (0, 0, 0, 2),  (0, 0, 0, 0);
0cup,	0cdown,	0adown,	2aup,	0.5,	6,	(0, 0, 0, 0),   (0, 0, 0, 0),  (0, 0, 0, 2),  (0, 0, 0, 0);
0cdown,	0cup,	0aup,	2adown,	0.5,	6,	(0, 0, 0, 0),   (0, 0, 0, 0),  (0, 0, 0, 2),  (0, 0, 0, 0);
0cup,	0cup,	1aup,	2aup,	0.5,	7,	(0, 0, 0, 0),   (0, 0, 0, 0),  (0, 0, 0, 2),  (0, 0, 0, 1);
0cdown,	0cdown,	1adown,	2adown,	0.5,	7,	(0, 0, 0, 0),   (0, 0, 0, 0),  (0, 0, 0, 2),  (0, 0, 0, 1);
0cup,	0cdown,	1adown,	2aup,	0.5,	7,	(0, 0, 0, 0),   (0, 0, 0, 0),  (0, 0, 0, 2),  (0, 0, 0, 1);
0cdown,	0cup,	1aup,	2adown,	0.5,	7,	(0, 0, 0, 0),   (0, 0, 0, 0),  (0, 0, 0, 2),  (0, 0, 0, 1);
0cup,	0cup,	2aup,	2aup,	0.5,	8,	(0, 0, 0, 0),   (0, 0, 0, 0),  (0, 0, 0, 2),  (0, 0, 0, 2);
0cdown,	0cdown,	2adown,	2adown,	0.5,	8,	(0, 0, 0, 0),   (0, 0, 0, 0),  (0, 0, 0, 2),  (0, 0, 0, 2);
0cup,	0cdown,	2adown,	2aup,	0.5,	8,	(0, 0, 0, 0),   (0, 0, 0, 0),  (0, 0, 0, 2),  (0, 0, 0, 2);
0cdown,	0cup,	2aup,	2adown,	0.5,	8,	(0, 0, 0, 0),   (0, 0, 0, 0),  (0, 0, 0, 2),  (0, 0, 0, 2);
0cup,	1cup,	0aup,	0aup,	0.5,	9,	(0, 0, 0, 0),   (0, 0, 0, 1),  (0, 0, 0, 0),  (0, 0, 0, 0);
0cdown,	1cdown,	0adown,	0adown,	0.5,	9,	(0, 0, 0, 0),   (0, 0, 0, 1),  (0, 0, 0, 0),  (0, 0, 0, 0);
0cup,	1cdown,	0adown,	0aup,	0.5,	9,	(0, 0, 0, 0),   (0, 0, 0, 1),  (0, 0, 0, 0),  (0, 0, 0, 0);
0cdown,	1cup,	0aup,	0adown,	0.5,	9,	(0, 0, 0, 0),   (0, 0, 0, 1),  (0, 0, 0, 0),  (0, 0, 0, 0);
0cup,	1cup,	1aup,	0aup,	0.5,	10,	(0, 0, 0, 0),   (0, 0, 0, 1),  (0, 0, 0, 0),  (0, 0, 0, 1);
0cdown,	1cdown,	1adown,	0adown,	0.5,	10,	(0, 0, 0, 0),   (0, 0, 0, 1),  (0, 0, 0, 0),  (0, 0, 0, 1);
0cup,	1cdown,	1adown,	0aup,	0.5,	10,	(0, 0, 0, 0),   (0, 0, 0, 1),  (0, 0, 0, 0),  (0, 0, 0, 1);
0cdown,	1cup,	1aup,	0adown,	0.5,	10,	(0, 0, 0, 0),   (0, 0, 0, 1),  (0, 0, 0, 0),  (0, 0, 0, 1);
0cup,	1cup,	2aup,	0aup,	0.5,	11,	(0, 0, 0, 0),   (0, 0, 0, 1),  (0, 0, 0, 0),  (0, 0, 0, 2);
0cdown,	1cdown,	2adown,	0adown,	0.5,	11,	(0, 0, 0, 0),   (0, 0, 0, 1),  (0, 0, 0, 0),  (0, 0, 0, 2);
0cup,	1cdown,	2adown,	0aup,	0.5,	11,	(0, 0, 0, 0),   (0, 0, 0, 1),  (0, 0, 0, 0),  (0, 0, 0, 2);
0cdown,	1cup,	2aup,	0adown,	0.5,	11,	(0, 0, 0, 0),   (0, 0, 0, 1),  (0, 0, 0, 0),  (0, 0, 0, 2);
0cup,	1cup,	0aup,	1aup,	0.5,	12,	(0, 0, 0, 0),   (0, 0, 0, 1),  (0, 0, 0, 1),  (0, 0, 0, 0);
0cdown,	1cdown,	0adown,	1adown,	0.5,	12,	(0, 0, 0, 0),   (0, 0, 0, 1),  (0, 0, 0, 1),  (0, 0, 0, 0);
0cup,	1cdown,	0adown,	1aup,	0.5,	12,	(0, 0, 0, 0),   (0, 0, 0, 1),  (0, 0, 0, 1),  (0, 0, 0, 0);
0cdown,	1cup,	0aup,	1adown,	0.5,	12,	(0, 0, 0, 0),   (0, 0, 0, 1),  (0, 0, 0, 1),  (0, 0, 0, 0);
0cup,	1cup,	1aup,	1aup,	0.5,	13,	(0, 0, 0, 0),   (0, 0, 0, 1),  (0, 0, 0, 1),  (0, 0, 0, 1);
0cdown,	1cdown,	1adown,	1adown,	0.5,	13,	(0, 0, 0, 0),   (0, 0, 0, 1),  (0, 0, 0, 1),  (0, 0, 0, 1);
0cup,	1cdown,	1adown,	1aup,	0.5,	13,	(0, 0, 0, 0),   (0, 0, 0, 1),  (0, 0, 0, 1),  (0, 0, 0, 1);
0cdown,	1cup,	1aup,	1adown,	0.5,	13,	(0, 0, 0, 0),   (0, 0, 0, 1),  (0, 0, 0, 1),  (0, 0, 0, 1);
0cup,	1cup,	2aup,	1aup,	0.5,	14,	(0, 0, 0, 0),   (0, 0, 0, 1),  (0, 0, 0, 1),  (0, 0, 0, 2);
0cdown,	1cdown,	2adown,	1adown,	0.5,	14,	(0, 0, 0, 0),   (0, 0, 0, 1),  (0, 0, 0, 1),  (0, 0, 0, 2);
0cup,	1cdown,	2adown,	1aup,	0.5,	14,	(0, 0, 0, 0),   (0, 0, 0, 1),  (0, 0, 0, 1),  (0, 0, 0, 2);
0cdown,	1cup,	2aup,	1adown,	0.5,	14,	(0, 0, 0, 0),   (0, 0, 0, 1),  (0, 0, 0, 1),  (0, 0, 0, 2);
0cup,	1cup,	0aup,	2aup,	0.5,	15,	(0, 0, 0, 0),   (0, 0, 0, 1),  (0, 0, 0, 2),  (0, 0, 0, 0);
0cdown,	1cdown,	0adown,	2adown,	0.5,	15,	(0, 0, 0, 0),   (0, 0, 0, 1),  (0, 0, 0, 2),  (0, 0, 0, 0);
0cup,	1cdown,	0adown,	2aup,	0.5,	15,	(0, 0, 0, 0),   (0, 0, 0, 1),  (0, 0, 0, 2),  (0, 0, 0, 0);
0cdown,	1cup,	0aup,	2adown,	0.5,	15,	(0, 0, 0, 0),   (0, 0, 0, 1),  (0, 0, 0, 2),  (0, 0, 0, 0);
0cup,	1cup,	1aup,	2aup,	0.5,	16,	(0, 0, 0, 0),   (0, 0, 0, 1),  (0, 0, 0, 2),  (0, 0, 0, 1);
0cdown,	1cdown,	1adown,	2adown,	0.5,	16,	(0, 0, 0, 0),   (0, 0, 0, 1),  (0, 0, 0, 2),  (0, 0, 0, 1);
0cup,	1cdown,	1adown,	2aup,	0.5,	16,	(0, 0, 0, 0),   (0, 0, 0, 1),  (0, 0, 0, 2),  (0, 0, 0, 1);
0cdown,	1cup,	1aup,	2adown,	0.5,	16,	(0, 0, 0, 0),   (0, 0, 0, 1),  (0, 0, 0, 2),  (0, 0, 0, 1);
0cup,	1cup,	2aup,	2aup,	0.5,	17,	(0, 0, 0, 0),   (0, 0, 0, 1),  (0, 0, 0, 2),  (0, 0, 0, 2);
0cdown,	1cdown,	2adown,	2adown,	0.5,	17,	(0, 0, 0, 0),   (0, 0, 0, 1),  (0, 0, 0, 2),  (0, 0, 0, 2);
0cup,	1cdown,	2adown,	2aup,	0.5,	17,	(0, 0, 0, 0),   (0, 0, 0, 1),  (0, 0, 0, 2),  (0, 0, 0, 2);
0cdown,	1cup,	2aup,	2adown,	0.5,	17,	(0, 0, 0, 0),   (0, 0, 0, 1),  (0, 0, 0, 2),  (0, 0, 0, 2);
0cup,	2cup,	0aup,	0aup,	0.5,	18,	(0, 0, 0, 0),   (0, 0, 0, 2),  (0, 0, 0, 0),  (0, 0, 0, 0);
0cdown,	2cdown,	0adown,	0adown,	0.5,	18,	(0, 0, 0, 0),   (0, 0, 0, 2),  (0, 0, 0, 0),  (0, 0, 0, 0);
0cup,	2cdown,	0adown,	0aup,	0.5,	18,	(0, 0, 0, 0),   (0, 0, 0, 2),  (0, 0, 0, 0),  (0, 0, 0, 0);
0cdown,	2cup,	0aup,	0adown,	0.5,	18,	(0, 0, 0, 0),   (0, 0, 0, 2),  (0, 0, 0, 0),  (0, 0, 0, 0);
0cup,	2cup,	1aup,	0aup,	0.5,	19,	(0, 0, 0, 0),   (0, 0, 0, 2),  (0, 0, 0, 0),  (0, 0, 0, 1);
0cdown,	2cdown,	1adown,	0adown,	0.5,	19,	(0, 0, 0, 0),   (0, 0, 0, 2),  (0, 0, 0, 0),  (0, 0, 0, 1);
0cup,	2cdown,	1adown,	0aup,	0.5,	19,	(0, 0, 0, 0),   (0, 0, 0, 2),  (0, 0, 0, 0),  (0, 0, 0, 1);
0cdown,	2cup,	1aup,	0adown,	0.5,	19,	(0, 0, 0, 0),   (0, 0, 0, 2),  (0, 0, 0, 0),  (0, 0, 0, 1);
0cup,	2cup,	2aup,	0aup,	0.5,	20,	(0, 0, 0, 0),   (0, 0, 0, 2),  (0, 0, 0, 0),  (0, 0, 0, 2);
0cdown,	2cdown,	2adown,	0adown,	0.5,	20,	(0, 0, 0, 0),   (0, 0, 0, 2),  (0, 0, 0, 0),  (0, 0, 0, 2);
0cup,	2cdown,	2adown,	0aup,	0.5,	20,	(0, 0, 0, 0),   (0, 0, 0, 2),  (0, 0, 0, 0),  (0, 0, 0, 2);
0cdown,	2cup,	2aup,	0adown,	0.5,	20,	(0, 0, 0, 0),   (0, 0, 0, 2),  (0, 0, 0, 0),  (0, 0, 0, 2);
0cup,	2cup,	0aup,	1aup,	0.5,	21,	(0, 0, 0, 0),   (0, 0, 0, 2),  (0, 0, 0, 1),  (0, 0, 0, 0);
0cdown,	2cdown,	0adown,	1adown,	0.5,	21,	(0, 0, 0, 0),   (0, 0, 0, 2),  (0, 0, 0, 1),  (0, 0, 0, 0);
0cup,	2cdown,	0adown,	1aup,	0.5,	21,	(0, 0, 0, 0),   (0, 0, 0, 2),  (0, 0, 0, 1),  (0, 0, 0, 0);
0cdown,	2cup,	0aup,	1adown,	0.5,	21,	(0, 0, 0, 0),   (0, 0, 0, 2),  (0, 0, 0, 1),  (0, 0, 0, 0);
0cup,	2cup,	1aup,	1aup,	0.5,	22,	(0, 0, 0, 0),   (0, 0, 0, 2),  (0, 0, 0, 1),  (0, 0, 0, 1);
0cdown,	2cdown,	1adown,	1adown,	0.5,	22,	(0, 0, 0, 0),   (0, 0, 0, 2),  (0, 0, 0, 1),  (0, 0, 0, 1);
0cup,	2cdown,	1adown,	1aup,	0.5,	22,	(0, 0, 0, 0),   (0, 0, 0, 2),  (0, 0, 0, 1),  (0, 0, 0, 1);
0cdown,	2cup,	1aup,	1adown,	0.5,	22,	(0, 0, 0, 0),   (0, 0, 0, 2),  (0, 0, 0, 1),  (0, 0, 0, 1);
0cup,	2cup,	2aup,	1aup,	0.5,	23,	(0, 0, 0, 0),   (0, 0, 0, 2),  (0, 0, 0, 1),  (0, 0, 0, 2);
0cdown,	2cdown,	2adown,	1adown,	0.5,	23,	(0, 0, 0, 0),   (0, 0, 0, 2),  (0, 0, 0, 1),  (0, 0, 0, 2);
0cup,	2cdown,	2adown,	1aup,	0.5,	23,	(0, 0, 0, 0),   (0, 0, 0, 2),  (0, 0, 0, 1),  (0, 0, 0, 2);
0cdown,	2cup,	2aup,	1adown,	0.5,	23,	(0, 0, 0, 0),   (0, 0, 0, 2),  (0, 0, 0, 1),  (0, 0, 0, 2);
0cup,	2cup,	0aup,	2aup,	0.5,	24,	(0, 0, 0, 0),   (0, 0, 0, 2),  (0, 0, 0, 2),  (0, 0, 0, 0);
0cdown,	2cdown,	0adown,	2adown,	0.5,	24,	(0, 0, 0, 0),   (0, 0, 0, 2),  (0, 0, 0, 2),  (0, 0, 0, 0);
0cup,	2cdown,	0adown,	2aup,	0.5,	24,	(0, 0, 0, 0),   (0, 0, 0, 2),  (0, 0, 0, 2),  (0, 0, 0, 0);
0cdown,	2cup,	0aup,	2adown,	0.5,	24,	(0, 0, 0, 0),   (0, 0, 0, 2),  (0, 0, 0, 2),  (0, 0, 0, 0);
0cup,	2cup,	1aup,	2aup,	0.5,	25,	(0, 0, 0, 0),   (0, 0, 0, 2),  (0, 0, 0, 2),  (0, 0, 0, 1);
0cdown,	2cdown,	1adown,	2adown,	0.5,	25,	(0, 0, 0, 0),   (0, 0, 0, 2),  (0, 0, 0, 2),  (0, 0, 0, 1);
0cup,	2cdown,	1adown,	2aup,	0.5,	25,	(0, 0, 0, 0),   (0, 0, 0, 2),  (0, 0, 0, 2),  (0, 0, 0, 1);
0cdown,	2cup,	1aup,	2adown,	0.5,	25,	(0, 0, 0, 0),   (0, 0, 0, 2),  (0, 0, 0, 2),  (0, 0, 0, 1);
0cup,	2cup,	2aup,	2aup,	0.5,	26,	(0, 0, 0, 0),   (0, 0, 0, 2),  (0, 0, 0, 2),  (0, 0, 0, 2);
0cdown,	2cdown,	2adown,	2adown,	0.5,	26,	(0, 0, 0, 0),   (0, 0, 0, 2),  (0, 0, 0, 2),  (0, 0, 0, 2);
0cup,	2cdown,	2adown,	2aup,	0.5,	26,	(0, 0, 0, 0),   (0, 0, 0, 2),  (0, 0, 0, 2),  (0, 0, 0, 2);
0cdown,	2cup,	2aup,	2adown,	0.5,	26,	(0, 0, 0, 0),   (0, 0, 0, 2),  (0, 0, 0, 2),  (0, 0, 0, 2);
1cup,	0cup,	0aup,	0aup,	0.5,	27,	(0, 0, 0, 1),   (0, 0, 0, 0),  (0, 0, 0, 0),  (0, 0, 0, 0);
1cdown,	0cdown,	0adown,	0adown,	0.5,	27,	(0, 0, 0, 1),   (0, 0, 0, 0),  (0, 0, 0, 0),  (0, 0, 0, 0);
1cup,	0cdown,	0adown,	0aup,	0.5,	27,	(0, 0, 0, 1),   (0, 0, 0, 0),  (0, 0, 0, 0),  (0, 0, 0, 0);
1cdown,	0cup,	0aup,	0adown,	0.5,	27,	(0, 0, 0, 1),   (0, 0, 0, 0),  (0, 0, 0, 0),  (0, 0, 0, 0);
1cup,	0cup,	1aup,	0aup,	0.5,	28,	(0, 0, 0, 1),   (0, 0, 0, 0),  (0, 0, 0, 0),  (0, 0, 0, 1);
1cdown,	0cdown,	1adown,	0adown,	0.5,	28,	(0, 0, 0, 1),   (0, 0, 0, 0),  (0, 0, 0, 0),  (0, 0, 0, 1);
1cup,	0cdown,	1adown,	0aup,	0.5,	28,	(0, 0, 0, 1),   (0, 0, 0, 0),  (0, 0, 0, 0),  (0, 0, 0, 1);
1cdown,	0cup,	1aup,	0adown,	0.5,	28,	(0, 0, 0, 1),   (0, 0, 0, 0),  (0, 0, 0, 0),  (0, 0, 0, 1);
1cup,	0cup,	2aup,	0aup,	0.5,	29,	(0, 0, 0, 1),   (0, 0, 0, 0),  (0, 0, 0, 0),  (0, 0, 0, 2);
1cdown,	0cdown,	2adown,	0adown,	0.5,	29,	(0, 0, 0, 1),   (0, 0, 0, 0),  (0, 0, 0, 0),  (0, 0, 0, 2);
1cup,	0cdown,	2adown,	0aup,	0.5,	29,	(0, 0, 0, 1),   (0, 0, 0, 0),  (0, 0, 0, 0),  (0, 0, 0, 2);
1cdown,	0cup,	2aup,	0adown,	0.5,	29,	(0, 0, 0, 1),   (0, 0, 0, 0),  (0, 0, 0, 0),  (0, 0, 0, 2);
1cup,	0cup,	0aup,	1aup,	0.5,	30,	(0, 0, 0, 1),   (0, 0, 0, 0),  (0, 0, 0, 1),  (0, 0, 0, 0);
1cdown,	0cdown,	0adown,	1adown,	0.5,	30,	(0, 0, 0, 1),   (0, 0, 0, 0),  (0, 0, 0, 1),  (0, 0, 0, 0);
1cup,	0cdown,	0adown,	1aup,	0.5,	30,	(0, 0, 0, 1),   (0, 0, 0, 0),  (0, 0, 0, 1),  (0, 0, 0, 0);
1cdown,	0cup,	0aup,	1adown,	0.5,	30,	(0, 0, 0, 1),   (0, 0, 0, 0),  (0, 0, 0, 1),  (0, 0, 0, 0);
1cup,	0cup,	1aup,	1aup,	0.5,	31,	(0, 0, 0, 1),   (0, 0, 0, 0),  (0, 0, 0, 1),  (0, 0, 0, 1);
1cdown,	0cdown,	1adown,	1adown,	0.5,	31,	(0, 0, 0, 1),   (0, 0, 0, 0),  (0, 0, 0, 1),  (0, 0, 0, 1);
1cup,	0cdown,	1adown,	1aup,	0.5,	31,	(0, 0, 0, 1),   (0, 0, 0, 0),  (0, 0, 0, 1),  (0, 0, 0, 1);
1cdown,	0cup,	1aup,	1adown,	0.5,	31,	(0, 0, 0, 1),   (0, 0, 0, 0),  (0, 0, 0, 1),  (0, 0, 0, 1);
1cup,	0cup,	2aup,	1aup,	0.5,	32,	(0, 0, 0, 1),   (0, 0, 0, 0),  (0, 0, 0, 1),  (0, 0, 0, 2);
1cdown,	0cdown,	2adown,	1adown,	0.5,	32,	(0, 0, 0, 1),   (0, 0, 0, 0),  (0, 0, 0, 1),  (0, 0, 0, 2);
1cup,	0cdown,	2adown,	1aup,	0.5,	32,	(0, 0, 0, 1),   (0, 0, 0, 0),  (0, 0, 0, 1),  (0, 0, 0, 2);
1cdown,	0cup,	2aup,	1adown,	0.5,	32,	(0, 0, 0, 1),   (0, 0, 0, 0),  (0, 0, 0, 1),  (0, 0, 0, 2);
1cup,	0cup,	0aup,	2aup,	0.5,	33,	(0, 0, 0, 1),   (0, 0, 0, 0),  (0, 0, 0, 2),  (0, 0, 0, 0);
1cdown,	0cdown,	0adown,	2adown,	0.5,	33,	(0, 0, 0, 1),   (0, 0, 0, 0),  (0, 0, 0, 2),  (0, 0, 0, 0);
1cup,	0cdown,	0adown,	2aup,	0.5,	33,	(0, 0, 0, 1),   (0, 0, 0, 0),  (0, 0, 0, 2),  (0, 0, 0, 0);
1cdown,	0cup,	0aup,	2adown,	0.5,	33,	(0, 0, 0, 1),   (0, 0, 0, 0),  (0, 0, 0, 2),  (0, 0, 0, 0);
1cup,	0cup,	1aup,	2aup,	0.5,	34,	(0, 0, 0, 1),   (0, 0, 0, 0),  (0, 0, 0, 2),  (0, 0, 0, 1);
1cdown,	0cdown,	1adown,	2adown,	0.5,	34,	(0, 0, 0, 1),   (0, 0, 0, 0),  (0, 0, 0, 2),  (0, 0, 0, 1);
1cup,	0cdown,	1adown,	2aup,	0.5,	34,	(0, 0, 0, 1),   (0, 0, 0, 0),  (0, 0, 0, 2),  (0, 0, 0, 1);
1cdown,	0cup,	1aup,	2adown,	0.5,	34,	(0, 0, 0, 1),   (0, 0, 0, 0),  (0, 0, 0, 2),  (0, 0, 0, 1);
1cup,	0cup,	2aup,	2aup,	0.5,	35,	(0, 0, 0, 1),   (0, 0, 0, 0),  (0, 0, 0, 2),  (0, 0, 0, 2);
1cdown,	0cdown,	2adown,	2adown,	0.5,	35,	(0, 0, 0, 1),   (0, 0, 0, 0),  (0, 0, 0, 2),  (0, 0, 0, 2);
1cup,	0cdown,	2adown,	2aup,	0.5,	35,	(0, 0, 0, 1),   (0, 0, 0, 0),  (0, 0, 0, 2),  (0, 0, 0, 2);
1cdown,	0cup,	2aup,	2adown,	0.5,	35,	(0, 0, 0, 1),   (0, 0, 0, 0),  (0, 0, 0, 2),  (0, 0, 0, 2);
1cup,	1cup,	0aup,	0aup,	0.5,	36,	(0, 0, 0, 1),   (0, 0, 0, 1),  (0, 0, 0, 0),  (0, 0, 0, 0);
1cdown,	1cdown,	0adown,	0adown,	0.5,	36,	(0, 0, 0, 1),   (0, 0, 0, 1),  (0, 0, 0, 0),  (0, 0, 0, 0);
1cup,	1cdown,	0adown,	0aup,	0.5,	36,	(0, 0, 0, 1),   (0, 0, 0, 1),  (0, 0, 0, 0),  (0, 0, 0, 0);
1cdown,	1cup,	0aup,	0adown,	0.5,	36,	(0, 0, 0, 1),   (0, 0, 0, 1),  (0, 0, 0, 0),  (0, 0, 0, 0);
1cup,	1cup,	1aup,	0aup,	0.5,	37,	(0, 0, 0, 1),   (0, 0, 0, 1),  (0, 0, 0, 0),  (0, 0, 0, 1);
1cdown,	1cdown,	1adown,	0adown,	0.5,	37,	(0, 0, 0, 1),   (0, 0, 0, 1),  (0, 0, 0, 0),  (0, 0, 0, 1);
1cup,	1cdown,	1adown,	0aup,	0.5,	37,	(0, 0, 0, 1),   (0, 0, 0, 1),  (0, 0, 0, 0),  (0, 0, 0, 1);
1cdown,	1cup,	1aup,	0adown,	0.5,	37,	(0, 0, 0, 1),   (0, 0, 0, 1),  (0, 0, 0, 0),  (0, 0, 0, 1);
1cup,	1cup,	2aup,	0aup,	0.5,	38,	(0, 0, 0, 1),   (0, 0, 0, 1),  (0, 0, 0, 0),  (0, 0, 0, 2);
1cdown,	1cdown,	2adown,	0adown,	0.5,	38,	(0, 0, 0, 1),   (0, 0, 0, 1),  (0, 0, 0, 0),  (0, 0, 0, 2);
1cup,	1cdown,	2adown,	0aup,	0.5,	38,	(0, 0, 0, 1),   (0, 0, 0, 1),  (0, 0, 0, 0),  (0, 0, 0, 2);
1cdown,	1cup,	2aup,	0adown,	0.5,	38,	(0, 0, 0, 1),   (0, 0, 0, 1),  (0, 0, 0, 0),  (0, 0, 0, 2);
1cup,	1cup,	0aup,	1aup,	0.5,	39,	(0, 0, 0, 1),   (0, 0, 0, 1),  (0, 0, 0, 1),  (0, 0, 0, 0);
1cdown,	1cdown,	0adown,	1adown,	0.5,	39,	(0, 0, 0, 1),   (0, 0, 0, 1),  (0, 0, 0, 1),  (0, 0, 0, 0);
1cup,	1cdown,	0adown,	1aup,	0.5,	39,	(0, 0, 0, 1),   (0, 0, 0, 1),  (0, 0, 0, 1),  (0, 0, 0, 0);
1cdown,	1cup,	0aup,	1adown,	0.5,	39,	(0, 0, 0, 1),   (0, 0, 0, 1),  (0, 0, 0, 1),  (0, 0, 0, 0);
1cup,	1cup,	1aup,	1aup,	0.5,	40,	(0, 0, 0, 1),   (0, 0, 0, 1),  (0, 0, 0, 1),  (0, 0, 0, 1);
1cdown,	1cdown,	1adown,	1adown,	0.5,	40,	(0, 0, 0, 1),   (0, 0, 0, 1),  (0, 0, 0, 1),  (0, 0, 0, 1);
1cup,	1cdown,	1adown,	1aup,	0.5,	40,	(0, 0, 0, 1),   (0, 0, 0, 1),  (0, 0, 0, 1),  (0, 0, 0, 1);
1cdown,	1cup,	1aup,	1adown,	0.5,	40,	(0, 0, 0, 1),   (0, 0, 0, 1),  (0, 0, 0, 1),  (0, 0, 0, 1);
1cup,	1cup,	2aup,	1aup,	0.5,	41,	(0, 0, 0, 1),   (0, 0, 0, 1),  (0, 0, 0, 1),  (0, 0, 0, 2);
1cdown,	1cdown,	2adown,	1adown,	0.5,	41,	(0, 0, 0, 1),   (0, 0, 0, 1),  (0, 0, 0, 1),  (0, 0, 0, 2);
1cup,	1cdown,	2adown,	1aup,	0.5,	41,	(0, 0, 0, 1),   (0, 0, 0, 1),  (0, 0, 0, 1),  (0, 0, 0, 2);
1cdown,	1cup,	2aup,	1adown,	0.5,	41,	(0, 0, 0, 1),   (0, 0, 0, 1),  (0, 0, 0, 1),  (0, 0, 0, 2);
1cup,	1cup,	0aup,	2aup,	0.5,	42,	(0, 0, 0, 1),   (0, 0, 0, 1),  (0, 0, 0, 2),  (0, 0, 0, 0);
1cdown,	1cdown,	0adown,	2adown,	0.5,	42,	(0, 0, 0, 1),   (0, 0, 0, 1),  (0, 0, 0, 2),  (0, 0, 0, 0);
1cup,	1cdown,	0adown,	2aup,	0.5,	42,	(0, 0, 0, 1),   (0, 0, 0, 1),  (0, 0, 0, 2),  (0, 0, 0, 0);
1cdown,	1cup,	0aup,	2adown,	0.5,	42,	(0, 0, 0, 1),   (0, 0, 0, 1),  (0, 0, 0, 2),  (0, 0, 0, 0);
1cup,	1cup,	1aup,	2aup,	0.5,	43,	(0, 0, 0, 1),   (0, 0, 0, 1),  (0, 0, 0, 2),  (0, 0, 0, 1);
1cdown,	1cdown,	1adown,	2adown,	0.5,	43,	(0, 0, 0, 1),   (0, 0, 0, 1),  (0, 0, 0, 2),  (0, 0, 0, 1);
1cup,	1cdown,	1adown,	2aup,	0.5,	43,	(0, 0, 0, 1),   (0, 0, 0, 1),  (0, 0, 0, 2),  (0, 0, 0, 1);
1cdown,	1cup,	1aup,	2adown,	0.5,	43,	(0, 0, 0, 1),   (0, 0, 0, 1),  (0, 0, 0, 2),  (0, 0, 0, 1);
1cup,	1cup,	2aup,	2aup,	0.5,	44,	(0, 0, 0, 1),   (0, 0, 0, 1),  (0, 0, 0, 2),  (0, 0, 0, 2);
1cdown,	1cdown,	2adown,	2adown,	0.5,	44,	(0, 0, 0, 1),   (0, 0, 0, 1),  (0, 0, 0, 2),  (0, 0, 0, 2);
1cup,	1cdown,	2adown,	2aup,	0.5,	44,	(0, 0, 0, 1),   (0, 0, 0, 1),  (0, 0, 0, 2),  (0, 0, 0, 2);
1cdown,	1cup,	2aup,	2adown,	0.5,	44,	(0, 0, 0, 1),   (0, 0, 0, 1),  (0, 0, 0, 2),  (0, 0, 0, 2);
1cup,	2cup,	0aup,	0aup,	0.5,	45,	(0, 0, 0, 1),   (0, 0, 0, 2),  (0, 0, 0, 0),  (0, 0, 0, 0);
1cdown,	2cdown,	0adown,	0adown,	0.5,	45,	(0, 0, 0, 1),   (0, 0, 0, 2),  (0, 0, 0, 0),  (0, 0, 0, 0);
1cup,	2cdown,	0adown,	0aup,	0.5,	45,	(0, 0, 0, 1),   (0, 0, 0, 2),  (0, 0, 0, 0),  (0, 0, 0, 0);
1cdown,	2cup,	0aup,	0adown,	0.5,	45,	(0, 0, 0, 1),   (0, 0, 0, 2),  (0, 0, 0, 0),  (0, 0, 0, 0);
1cup,	2cup,	1aup,	0aup,	0.5,	46,	(0, 0, 0, 1),   (0, 0, 0, 2),  (0, 0, 0, 0),  (0, 0, 0, 1);
1cdown,	2cdown,	1adown,	0adown,	0.5,	46,	(0, 0, 0, 1),   (0, 0, 0, 2),  (0, 0, 0, 0),  (0, 0, 0, 1);
1cup,	2cdown,	1adown,	0aup,	0.5,	46,	(0, 0, 0, 1),   (0, 0, 0, 2),  (0, 0, 0, 0),  (0, 0, 0, 1);
1cdown,	2cup,	1aup,	0adown,	0.5,	46,	(0, 0, 0, 1),   (0, 0, 0, 2),  (0, 0, 0, 0),  (0, 0, 0, 1);
1cup,	2cup,	2aup,	0aup,	0.5,	47,	(0, 0, 0, 1),   (0, 0, 0, 2),  (0, 0, 0, 0),  (0, 0, 0, 2);
1cdown,	2cdown,	2adown,	0adown,	0.5,	47,	(0, 0, 0, 1),   (0, 0, 0, 2),  (0, 0, 0, 0),  (0, 0, 0, 2);
1cup,	2cdown,	2adown,	0aup,	0.5,	47,	(0, 0, 0, 1),   (0, 0, 0, 2),  (0, 0, 0, 0),  (0, 0, 0, 2);
1cdown,	2cup,	2aup,	0adown,	0.5,	47,	(0, 0, 0, 1),   (0, 0, 0, 2),  (0, 0, 0, 0),  (0, 0, 0, 2);
1cup,	2cup,	0aup,	1aup,	0.5,	48,	(0, 0, 0, 1),   (0, 0, 0, 2),  (0, 0, 0, 1),  (0, 0, 0, 0);
1cdown,	2cdown,	0adown,	1adown,	0.5,	48,	(0, 0, 0, 1),   (0, 0, 0, 2),  (0, 0, 0, 1),  (0, 0, 0, 0);
1cup,	2cdown,	0adown,	1aup,	0.5,	48,	(0, 0, 0, 1),   (0, 0, 0, 2),  (0, 0, 0, 1),  (0, 0, 0, 0);
1cdown,	2cup,	0aup,	1adown,	0.5,	48,	(0, 0, 0, 1),   (0, 0, 0, 2),  (0, 0, 0, 1),  (0, 0, 0, 0);
1cup,	2cup,	1aup,	1aup,	0.5,	49,	(0, 0, 0, 1),   (0, 0, 0, 2),  (0, 0, 0, 1),  (0, 0, 0, 1);
1cdown,	2cdown,	1adown,	1adown,	0.5,	49,	(0, 0, 0, 1),   (0, 0, 0, 2),  (0, 0, 0, 1),  (0, 0, 0, 1);
1cup,	2cdown,	1adown,	1aup,	0.5,	49,	(0, 0, 0, 1),   (0, 0, 0, 2),  (0, 0, 0, 1),  (0, 0, 0, 1);
1cdown,	2cup,	1aup,	1adown,	0.5,	49,	(0, 0, 0, 1),   (0, 0, 0, 2),  (0, 0, 0, 1),  (0, 0, 0, 1);
1cup,	2cup,	2aup,	1aup,	0.5,	50,	(0, 0, 0, 1),   (0, 0, 0, 2),  (0, 0, 0, 1),  (0, 0, 0, 2);
1cdown,	2cdown,	2adown,	1adown,	0.5,	50,	(0, 0, 0, 1),   (0, 0, 0, 2),  (0, 0, 0, 1),  (0, 0, 0, 2);
1cup,	2cdown,	2adown,	1aup,	0.5,	50,	(0, 0, 0, 1),   (0, 0, 0, 2),  (0, 0, 0, 1),  (0, 0, 0, 2);
1cdown,	2cup,	2aup,	1adown,	0.5,	50,	(0, 0, 0, 1),   (0, 0, 0, 2),  (0, 0, 0, 1),  (0, 0, 0, 2);
1cup,	2cup,	0aup,	2aup,	0.5,	51,	(0, 0, 0, 1),   (0, 0, 0, 2),  (0, 0, 0, 2),  (0, 0, 0, 0);
1cdown,	2cdown,	0adown,	2adown,	0.5,	51,	(0, 0, 0, 1),   (0, 0, 0, 2),  (0, 0, 0, 2),  (0, 0, 0, 0);
1cup,	2cdown,	0adown,	2aup,	0.5,	51,	(0, 0, 0, 1),   (0, 0, 0, 2),  (0, 0, 0, 2),  (0, 0, 0, 0);
1cdown,	2cup,	0aup,	2adown,	0.5,	51,	(0, 0, 0, 1),   (0, 0, 0, 2),  (0, 0, 0, 2),  (0, 0, 0, 0);
1cup,	2cup,	1aup,	2aup,	0.5,	52,	(0, 0, 0, 1),   (0, 0, 0, 2),  (0, 0, 0, 2),  (0, 0, 0, 1);
1cdown,	2cdown,	1adown,	2adown,	0.5,	52,	(0, 0, 0, 1),   (0, 0, 0, 2),  (0, 0, 0, 2),  (0, 0, 0, 1);
1cup,	2cdown,	1adown,	2aup,	0.5,	52,	(0, 0, 0, 1),   (0, 0, 0, 2),  (0, 0, 0, 2),  (0, 0, 0, 1);
1cdown,	2cup,	1aup,	2adown,	0.5,	52,	(0, 0, 0, 1),   (0, 0, 0, 2),  (0, 0, 0, 2),  (0, 0, 0, 1);
1cup,	2cup,	2aup,	2aup,	0.5,	53,	(0, 0, 0, 1),   (0, 0, 0, 2),  (0, 0, 0, 2),  (0, 0, 0, 2);
1cdown,	2cdown,	2adown,	2adown,	0.5,	53,	(0, 0, 0, 1),   (0, 0, 0, 2),  (0, 0, 0, 2),  (0, 0, 0, 2);
1cup,	2cdown,	2adown,	2aup,	0.5,	53,	(0, 0, 0, 1),   (0, 0, 0, 2),  (0, 0, 0, 2),  (0, 0, 0, 2);
1cdown,	2cup,	2aup,	2adown,	0.5,	53,	(0, 0, 0, 1),   (0, 0, 0, 2),  (0, 0, 0, 2),  (0, 0, 0, 2);
2cup,	0cup,	0aup,	0aup,	0.5,	54,	(0, 0, 0, 2),   (0, 0, 0, 0),  (0, 0, 0, 0),  (0, 0, 0, 0);
2cdown,	0cdown,	0adown,	0adown,	0.5,	54,	(0, 0, 0, 2),   (0, 0, 0, 0),  (0, 0, 0, 0),  (0, 0, 0, 0);
2cup,	0cdown,	0adown,	0aup,	0.5,	54,	(0, 0, 0, 2),   (0, 0, 0, 0),  (0, 0, 0, 0),  (0, 0, 0, 0);
2cdown,	0cup,	0aup,	0adown,	0.5,	54,	(0, 0, 0, 2),   (0, 0, 0, 0),  (0, 0, 0, 0),  (0, 0, 0, 0);
2cup,	0cup,	1aup,	0aup,	0.5,	55,	(0, 0, 0, 2),   (0, 0, 0, 0),  (0, 0, 0, 0),  (0, 0, 0, 1);
2cdown,	0cdown,	1adown,	0adown,	0.5,	55,	(0, 0, 0, 2),   (0, 0, 0, 0),  (0, 0, 0, 0),  (0, 0, 0, 1);
2cup,	0cdown,	1adown,	0aup,	0.5,	55,	(0, 0, 0, 2),   (0, 0, 0, 0),  (0, 0, 0, 0),  (0, 0, 0, 1);
2cdown,	0cup,	1aup,	0adown,	0.5,	55,	(0, 0, 0, 2),   (0, 0, 0, 0),  (0, 0, 0, 0),  (0, 0, 0, 1);
2cup,	0cup,	2aup,	0aup,	0.5,	56,	(0, 0, 0, 2),   (0, 0, 0, 0),  (0, 0, 0, 0),  (0, 0, 0, 2);
2cdown,	0cdown,	2adown,	0adown,	0.5,	56,	(0, 0, 0, 2),   (0, 0, 0, 0),  (0, 0, 0, 0),  (0, 0, 0, 2);
2cup,	0cdown,	2adown,	0aup,	0.5,	56,	(0, 0, 0, 2),   (0, 0, 0, 0),  (0, 0, 0, 0),  (0, 0, 0, 2);
2cdown,	0cup,	2aup,	0adown,	0.5,	56,	(0, 0, 0, 2),   (0, 0, 0, 0),  (0, 0, 0, 0),  (0, 0, 0, 2);
2cup,	0cup,	0aup,	1aup,	0.5,	57,	(0, 0, 0, 2),   (0, 0, 0, 0),  (0, 0, 0, 1),  (0, 0, 0, 0);
2cdown,	0cdown,	0adown,	1adown,	0.5,	57,	(0, 0, 0, 2),   (0, 0, 0, 0),  (0, 0, 0, 1),  (0, 0, 0, 0);
2cup,	0cdown,	0adown,	1aup,	0.5,	57,	(0, 0, 0, 2),   (0, 0, 0, 0),  (0, 0, 0, 1),  (0, 0, 0, 0);
2cdown,	0cup,	0aup,	1adown,	0.5,	57,	(0, 0, 0, 2),   (0, 0, 0, 0),  (0, 0, 0, 1),  (0, 0, 0, 0);
2cup,	0cup,	1aup,	1aup,	0.5,	58,	(0, 0, 0, 2),   (0, 0, 0, 0),  (0, 0, 0, 1),  (0, 0, 0, 1);
2cdown,	0cdown,	1adown,	1adown,	0.5,	58,	(0, 0, 0, 2),   (0, 0, 0, 0),  (0, 0, 0, 1),  (0, 0, 0, 1);
2cup,	0cdown,	1adown,	1aup,	0.5,	58,	(0, 0, 0, 2),   (0, 0, 0, 0),  (0, 0, 0, 1),  (0, 0, 0, 1);
2cdown,	0cup,	1aup,	1adown,	0.5,	58,	(0, 0, 0, 2),   (0, 0, 0, 0),  (0, 0, 0, 1),  (0, 0, 0, 1);
2cup,	0cup,	2aup,	1aup,	0.5,	59,	(0, 0, 0, 2),   (0, 0, 0, 0),  (0, 0, 0, 1),  (0, 0, 0, 2);
2cdown,	0cdown,	2adown,	1adown,	0.5,	59,	(0, 0, 0, 2),   (0, 0, 0, 0),  (0, 0, 0, 1),  (0, 0, 0, 2);
2cup,	0cdown,	2adown,	1aup,	0.5,	59,	(0, 0, 0, 2),   (0, 0, 0, 0),  (0, 0, 0, 1),  (0, 0, 0, 2);
2cdown,	0cup,	2aup,	1adown,	0.5,	59,	(0, 0, 0, 2),   (0, 0, 0, 0),  (0, 0, 0, 1),  (0, 0, 0, 2);
2cup,	0cup,	0aup,	2aup,	0.5,	60,	(0, 0, 0, 2),   (0, 0, 0, 0),  (0, 0, 0, 2),  (0, 0, 0, 0);
2cdown,	0cdown,	0adown,	2adown,	0.5,	60,	(0, 0, 0, 2),   (0, 0, 0, 0),  (0, 0, 0, 2),  (0, 0, 0, 0);
2cup,	0cdown,	0adown,	2aup,	0.5,	60,	(0, 0, 0, 2),   (0, 0, 0, 0),  (0, 0, 0, 2),  (0, 0, 0, 0);
2cdown,	0cup,	0aup,	2adown,	0.5,	60,	(0, 0, 0, 2),   (0, 0, 0, 0),  (0, 0, 0, 2),  (0, 0, 0, 0);
2cup,	0cup,	1aup,	2aup,	0.5,	61,	(0, 0, 0, 2),   (0, 0, 0, 0),  (0, 0, 0, 2),  (0, 0, 0, 1);
2cdown,	0cdown,	1adown,	2adown,	0.5,	61,	(0, 0, 0, 2),   (0, 0, 0, 0),  (0, 0, 0, 2),  (0, 0, 0, 1);
2cup,	0cdown,	1adown,	2aup,	0.5,	61,	(0, 0, 0, 2),   (0, 0, 0, 0),  (0, 0, 0, 2),  (0, 0, 0, 1);
2cdown,	0cup,	1aup,	2adown,	0.5,	61,	(0, 0, 0, 2),   (0, 0, 0, 0),  (0, 0, 0, 2),  (0, 0, 0, 1);
2cup,	0cup,	2aup,	2aup,	0.5,	62,	(0, 0, 0, 2),   (0, 0, 0, 0),  (0, 0, 0, 2),  (0, 0, 0, 2);
2cdown,	0cdown,	2adown,	2adown,	0.5,	62,	(0, 0, 0, 2),   (0, 0, 0, 0),  (0, 0, 0, 2),  (0, 0, 0, 2);
2cup,	0cdown,	2adown,	2aup,	0.5,	62,	(0, 0, 0, 2),   (0, 0, 0, 0),  (0, 0, 0, 2),  (0, 0, 0, 2);
2cdown,	0cup,	2aup,	2adown,	0.5,	62,	(0, 0, 0, 2),   (0, 0, 0, 0),  (0, 0, 0, 2),  (0, 0, 0, 2);
2cup,	1cup,	0aup,	0aup,	0.5,	63,	(0, 0, 0, 2),   (0, 0, 0, 1),  (0, 0, 0, 0),  (0, 0, 0, 0);
2cdown,	1cdown,	0adown,	0adown,	0.5,	63,	(0, 0, 0, 2),   (0, 0, 0, 1),  (0, 0, 0, 0),  (0, 0, 0, 0);
2cup,	1cdown,	0adown,	0aup,	0.5,	63,	(0, 0, 0, 2),   (0, 0, 0, 1),  (0, 0, 0, 0),  (0, 0, 0, 0);
2cdown,	1cup,	0aup,	0adown,	0.5,	63,	(0, 0, 0, 2),   (0, 0, 0, 1),  (0, 0, 0, 0),  (0, 0, 0, 0);
2cup,	1cup,	1aup,	0aup,	0.5,	64,	(0, 0, 0, 2),   (0, 0, 0, 1),  (0, 0, 0, 0),  (0, 0, 0, 1);
2cdown,	1cdown,	1adown,	0adown,	0.5,	64,	(0, 0, 0, 2),   (0, 0, 0, 1),  (0, 0, 0, 0),  (0, 0, 0, 1);
2cup,	1cdown,	1adown,	0aup,	0.5,	64,	(0, 0, 0, 2),   (0, 0, 0, 1),  (0, 0, 0, 0),  (0, 0, 0, 1);
2cdown,	1cup,	1aup,	0adown,	0.5,	64,	(0, 0, 0, 2),   (0, 0, 0, 1),  (0, 0, 0, 0),  (0, 0, 0, 1);
2cup,	1cup,	2aup,	0aup,	0.5,	65,	(0, 0, 0, 2),   (0, 0, 0, 1),  (0, 0, 0, 0),  (0, 0, 0, 2);
2cdown,	1cdown,	2adown,	0adown,	0.5,	65,	(0, 0, 0, 2),   (0, 0, 0, 1),  (0, 0, 0, 0),  (0, 0, 0, 2);
2cup,	1cdown,	2adown,	0aup,	0.5,	65,	(0, 0, 0, 2),   (0, 0, 0, 1),  (0, 0, 0, 0),  (0, 0, 0, 2);
2cdown,	1cup,	2aup,	0adown,	0.5,	65,	(0, 0, 0, 2),   (0, 0, 0, 1),  (0, 0, 0, 0),  (0, 0, 0, 2);
2cup,	1cup,	0aup,	1aup,	0.5,	66,	(0, 0, 0, 2),   (0, 0, 0, 1),  (0, 0, 0, 1),  (0, 0, 0, 0);
2cdown,	1cdown,	0adown,	1adown,	0.5,	66,	(0, 0, 0, 2),   (0, 0, 0, 1),  (0, 0, 0, 1),  (0, 0, 0, 0);
2cup,	1cdown,	0adown,	1aup,	0.5,	66,	(0, 0, 0, 2),   (0, 0, 0, 1),  (0, 0, 0, 1),  (0, 0, 0, 0);
2cdown,	1cup,	0aup,	1adown,	0.5,	66,	(0, 0, 0, 2),   (0, 0, 0, 1),  (0, 0, 0, 1),  (0, 0, 0, 0);
2cup,	1cup,	1aup,	1aup,	0.5,	67,	(0, 0, 0, 2),   (0, 0, 0, 1),  (0, 0, 0, 1),  (0, 0, 0, 1);
2cdown,	1cdown,	1adown,	1adown,	0.5,	67,	(0, 0, 0, 2),   (0, 0, 0, 1),  (0, 0, 0, 1),  (0, 0, 0, 1);
2cup,	1cdown,	1adown,	1aup,	0.5,	67,	(0, 0, 0, 2),   (0, 0, 0, 1),  (0, 0, 0, 1),  (0, 0, 0, 1);
2cdown,	1cup,	1aup,	1adown,	0.5,	67,	(0, 0, 0, 2),   (0, 0, 0, 1),  (0, 0, 0, 1),  (0, 0, 0, 1);
2cup,	1cup,	2aup,	1aup,	0.5,	68,	(0, 0, 0, 2),   (0, 0, 0, 1),  (0, 0, 0, 1),  (0, 0, 0, 2);
2cdown,	1cdown,	2adown,	1adown,	0.5,	68,	(0, 0, 0, 2),   (0, 0, 0, 1),  (0, 0, 0, 1),  (0, 0, 0, 2);
2cup,	1cdown,	2adown,	1aup,	0.5,	68,	(0, 0, 0, 2),   (0, 0, 0, 1),  (0, 0, 0, 1),  (0, 0, 0, 2);
2cdown,	1cup,	2aup,	1adown,	0.5,	68,	(0, 0, 0, 2),   (0, 0, 0, 1),  (0, 0, 0, 1),  (0, 0, 0, 2);
2cup,	1cup,	0aup,	2aup,	0.5,	69,	(0, 0, 0, 2),   (0, 0, 0, 1),  (0, 0, 0, 2),  (0, 0, 0, 0);
2cdown,	1cdown,	0adown,	2adown,	0.5,	69,	(0, 0, 0, 2),   (0, 0, 0, 1),  (0, 0, 0, 2),  (0, 0, 0, 0);
2cup,	1cdown,	0adown,	2aup,	0.5,	69,	(0, 0, 0, 2),   (0, 0, 0, 1),  (0, 0, 0, 2),  (0, 0, 0, 0);
2cdown,	1cup,	0aup,	2adown,	0.5,	69,	(0, 0, 0, 2),   (0, 0, 0, 1),  (0, 0, 0, 2),  (0, 0, 0, 0);
2cup,	1cup,	1aup,	2aup,	0.5,	70,	(0, 0, 0, 2),   (0, 0, 0, 1),  (0, 0, 0, 2),  (0, 0, 0, 1);
2cdown,	1cdown,	1adown,	2adown,	0.5,	70,	(0, 0, 0, 2),   (0, 0, 0, 1),  (0, 0, 0, 2),  (0, 0, 0, 1);
2cup,	1cdown,	1adown,	2aup,	0.5,	70,	(0, 0, 0, 2),   (0, 0, 0, 1),  (0, 0, 0, 2),  (0, 0, 0, 1);
2cdown,	1cup,	1aup,	2adown,	0.5,	70,	(0, 0, 0, 2),   (0, 0, 0, 1),  (0, 0, 0, 2),  (0, 0, 0, 1);
2cup,	1cup,	2aup,	2aup,	0.5,	71,	(0, 0, 0, 2),   (0, 0, 0, 1),  (0, 0, 0, 2),  (0, 0, 0, 2);
2cdown,	1cdown,	2adown,	2adown,	0.5,	71,	(0, 0, 0, 2),   (0, 0, 0, 1),  (0, 0, 0, 2),  (0, 0, 0, 2);
2cup,	1cdown,	2adown,	2aup,	0.5,	71,	(0, 0, 0, 2),   (0, 0, 0, 1),  (0, 0, 0, 2),  (0, 0, 0, 2);
2cdown,	1cup,	2aup,	2adown,	0.5,	71,	(0, 0, 0, 2),   (0, 0, 0, 1),  (0, 0, 0, 2),  (0, 0, 0, 2);
2cup,	2cup,	0aup,	0aup,	0.5,	72,	(0, 0, 0, 2),   (0, 0, 0, 2),  (0, 0, 0, 0),  (0, 0, 0, 0);
2cdown,	2cdown,	0adown,	0adown,	0.5,	72,	(0, 0, 0, 2),   (0, 0, 0, 2),  (0, 0, 0, 0),  (0, 0, 0, 0);
2cup,	2cdown,	0adown,	0aup,	0.5,	72,	(0, 0, 0, 2),   (0, 0, 0, 2),  (0, 0, 0, 0),  (0, 0, 0, 0);
2cdown,	2cup,	0aup,	0adown,	0.5,	72,	(0, 0, 0, 2),   (0, 0, 0, 2),  (0, 0, 0, 0),  (0, 0, 0, 0);
2cup,	2cup,	1aup,	0aup,	0.5,	73,	(0, 0, 0, 2),   (0, 0, 0, 2),  (0, 0, 0, 0),  (0, 0, 0, 1);
2cdown,	2cdown,	1adown,	0adown,	0.5,	73,	(0, 0, 0, 2),   (0, 0, 0, 2),  (0, 0, 0, 0),  (0, 0, 0, 1);
2cup,	2cdown,	1adown,	0aup,	0.5,	73,	(0, 0, 0, 2),   (0, 0, 0, 2),  (0, 0, 0, 0),  (0, 0, 0, 1);
2cdown,	2cup,	1aup,	0adown,	0.5,	73,	(0, 0, 0, 2),   (0, 0, 0, 2),  (0, 0, 0, 0),  (0, 0, 0, 1);
2cup,	2cup,	2aup,	0aup,	0.5,	74,	(0, 0, 0, 2),   (0, 0, 0, 2),  (0, 0, 0, 0),  (0, 0, 0, 2);
2cdown,	2cdown,	2adown,	0adown,	0.5,	74,	(0, 0, 0, 2),   (0, 0, 0, 2),  (0, 0, 0, 0),  (0, 0, 0, 2);
2cup,	2cdown,	2adown,	0aup,	0.5,	74,	(0, 0, 0, 2),   (0, 0, 0, 2),  (0, 0, 0, 0),  (0, 0, 0, 2);
2cdown,	2cup,	2aup,	0adown,	0.5,	74,	(0, 0, 0, 2),   (0, 0, 0, 2),  (0, 0, 0, 0),  (0, 0, 0, 2);
2cup,	2cup,	0aup,	1aup,	0.5,	75,	(0, 0, 0, 2),   (0, 0, 0, 2),  (0, 0, 0, 1),  (0, 0, 0, 0);
2cdown,	2cdown,	0adown,	1adown,	0.5,	75,	(0, 0, 0, 2),   (0, 0, 0, 2),  (0, 0, 0, 1),  (0, 0, 0, 0);
2cup,	2cdown,	0adown,	1aup,	0.5,	75,	(0, 0, 0, 2),   (0, 0, 0, 2),  (0, 0, 0, 1),  (0, 0, 0, 0);
2cdown,	2cup,	0aup,	1adown,	0.5,	75,	(0, 0, 0, 2),   (0, 0, 0, 2),  (0, 0, 0, 1),  (0, 0, 0, 0);
2cup,	2cup,	1aup,	1aup,	0.5,	76,	(0, 0, 0, 2),   (0, 0, 0, 2),  (0, 0, 0, 1),  (0, 0, 0, 1);
2cdown,	2cdown,	1adown,	1adown,	0.5,	76,	(0, 0, 0, 2),   (0, 0, 0, 2),  (0, 0, 0, 1),  (0, 0, 0, 1);
2cup,	2cdown,	1adown,	1aup,	0.5,	76,	(0, 0, 0, 2),   (0, 0, 0, 2),  (0, 0, 0, 1),  (0, 0, 0, 1);
2cdown,	2cup,	1aup,	1adown,	0.5,	76,	(0, 0, 0, 2),   (0, 0, 0, 2),  (0, 0, 0, 1),  (0, 0, 0, 1);
2cup,	2cup,	2aup,	1aup,	0.5,	77,	(0, 0, 0, 2),   (0, 0, 0, 2),  (0, 0, 0, 1),  (0, 0, 0, 2);
2cdown,	2cdown,	2adown,	1adown,	0.5,	77,	(0, 0, 0, 2),   (0, 0, 0, 2),  (0, 0, 0, 1),  (0, 0, 0, 2);
2cup,	2cdown,	2adown,	1aup,	0.5,	77,	(0, 0, 0, 2),   (0, 0, 0, 2),  (0, 0, 0, 1),  (0, 0, 0, 2);
2cdown,	2cup,	2aup,	1adown,	0.5,	77,	(0, 0, 0, 2),   (0, 0, 0, 2),  (0, 0, 0, 1),  (0, 0, 0, 2);
2cup,	2cup,	0aup,	2aup,	0.5,	78,	(0, 0, 0, 2),   (0, 0, 0, 2),  (0, 0, 0, 2),  (0, 0, 0, 0);
2cdown,	2cdown,	0adown,	2adown,	0.5,	78,	(0, 0, 0, 2),   (0, 0, 0, 2),  (0, 0, 0, 2),  (0, 0, 0, 0);
2cup,	2cdown,	0adown,	2aup,	0.5,	78,	(0, 0, 0, 2),   (0, 0, 0, 2),  (0, 0, 0, 2),  (0, 0, 0, 0);
2cdown,	2cup,	0aup,	2adown,	0.5,	78,	(0, 0, 0, 2),   (0, 0, 0, 2),  (0, 0, 0, 2),  (0, 0, 0, 0);
2cup,	2cup,	1aup,	2aup,	0.5,	79,	(0, 0, 0, 2),   (0, 0, 0, 2),  (0, 0, 0, 2),  (0, 0, 0, 1);
2cdown,	2cdown,	1adown,	2adown,	0.5,	79,	(0, 0, 0, 2),   (0, 0, 0, 2),  (0, 0, 0, 2),  (0, 0, 0, 1);
2cup,	2cdown,	1adown,	2aup,	0.5,	79,	(0, 0, 0, 2),   (0, 0, 0, 2),  (0, 0, 0, 2),  (0, 0, 0, 1);
2cdown,	2cup,	1aup,	2adown,	0.5,	79,	(0, 0, 0, 2),   (0, 0, 0, 2),  (0, 0, 0, 2),  (0, 0, 0, 1);
2cup,	2cup,	2aup,	2aup,	0.5,	80,	(0, 0, 0, 2),   (0, 0, 0, 2),  (0, 0, 0, 2),  (0, 0, 0, 2);
2cdown,	2cdown,	2adown,	2adown,	0.5,	80,	(0, 0, 0, 2),   (0, 0, 0, 2),  (0, 0, 0, 2),  (0, 0, 0, 2);
2cup,	2cdown,	2adown,	2aup,	0.5,	80,	(0, 0, 0, 2),   (0, 0, 0, 2),  (0, 0, 0, 2),  (0, 0, 0, 2);
2cdown,	2cup,	2aup,	2adown,	0.5,	80,	(0, 0, 0, 2),   (0, 0, 0, 2),  (0, 0, 0, 2),  (0, 0, 0, 2);
end_two_body
