{[0] [0,0,0] (0) [1s, 0, 0, 0, 0, 7] (1) [2s,0, 0, 0, 1,9] (2)[2p_x,0,0,0,2,13] (3)[2p_y,0,0,0,2,13] (4)[2p_z,0,0,0,2,13]}
{[1] [0,0,0] (0) [1s, 0, 0, 0, 0, 7] (1) [2s,0, 0, 0, 1,9] (2)[2p_x,0,0,0,2,13] (3)[2p_y,0,0,0,2,13] (4)[2p_z,0,0,0,2,13]}
{[2] [0,0,0] (0) [1s, 0, 0, 0, 0, 7] (1) [2s,0, 0, 0, 1,9] (2)[2p_x,0,0,0,2,13] (3)[2p_y,0,0,0,2,13] (4)[2p_z,0,0,0,2,13]}
{[3] [0,0,0] (0) [1s, 0, 0, 0, 0, 7] (1) [2s,0, 0, 0, 1,9] (2)[2p_x,0,0,0,2,13] (3)[2p_y,0,0,0,2,13] (4)[2p_z,0,0,0,2,13]}
{[4] [0,0,0] (0) [1s, 0, 0, 0, 0, 7] (1) [2s,0, 0, 0, 1,9] (2)[2p_x,0,0,0,2,13] (3)[2p_y,0,0,0,2,13] (4)[2p_z,0,0,0,2,13]}

<0,0,1>
<1,1,1>
<2,2,1>
<3,3,1>
<4,4,1>


open_betas 
1.5,1.1,1.1,0.1,0.1
close_betas


open_atomic_numbers
2,2,2,2,2
close_atomic_numbers

