-109.333 tot_w = 5000 n_steps =  8000 1.20542 -108.127
-109.306 tot_w = 5000 n_steps =  8000 1.15281 -108.153
-109.367 tot_w = 5000 n_steps =  8000 1.27458 -108.092
-109.317 tot_w = 5000 n_steps =  8000 1.23284 -108.084
-109.356 tot_w = 5000 n_steps =  8000 1.18934 -108.167
-109.356 tot_w = 5000 n_steps =  8000 1.18934 -108.167
-109.317 tot_w = 5000 n_steps =  8000 1.23284 -108.084
-109.343 tot_w = 5000 n_steps =  8000 1.16274 -108.181
-109.329 tot_w = 5000 n_steps =  8000 1.25758 -108.071
-109.329 tot_w = 5000 n_steps =  8000 1.25758 -108.071
-109.343 tot_w = 5000 n_steps =  8000 1.16274 -108.181
-109.322 tot_w = 5000 n_steps =  8000 1.12319 -108.199
-109.345 tot_w = 5000 n_steps =  8000 1.29243 -108.053
-109.359 tot_w = 5000 n_steps =  8000 1.38424 -107.975
-109.314 tot_w = 5000 n_steps =  8000 1.04576 -108.268
-109.575 tot_w = 5000 n_steps =  8000 0.267889 -109.307
-109.559 tot_w = 5000 n_steps =  8000 0.172465 -109.387
-109.597 tot_w = 5000 n_steps =  8000 0.396651 -109.201
-109.537 tot_w = 5000 n_steps =  8000 0.213768 -109.324
-109.619 tot_w = 5000 n_steps =  8000 0.345792 -109.274
-109.619 tot_w = 5000 n_steps =  8000 0.345792 -109.274
-109.537 tot_w = 5000 n_steps =  8000 0.213768 -109.324
one_body_integral#0 = 74.6523
one_body_integral#1 = -4.92406
one_body_integral#2 = -0.591851
one_body_integral#3 = -0.0507711
one_body_integral#4 = 0.025777
one_body_integral#5 = 0.00415587
one_body_integral#6 = -0.00393188
one_body_integral#7 = -0.000933184
0.9  -1.0872
one_body_integral#0 = 74.6523
one_body_integral#1 = -4.93608
one_body_integral#2 = -0.605917
one_body_integral#3 = -0.0536619
one_body_integral#4 = 0.0248695
one_body_integral#5 = 0.00459211
one_body_integral#6 = -0.0033664
one_body_integral#7 = -0.000949395
0.925  -1.09942
one_body_integral#0 = 74.6523
one_body_integral#1 = -4.94662
one_body_integral#2 = -0.620138
one_body_integral#3 = -0.0561626
one_body_integral#4 = 0.0239345
one_body_integral#5 = 0.0049273
one_body_integral#6 = -0.00285394
one_body_integral#7 = -0.000944681
